…
df = df %>%
  mutate(pct_late_departure = num_late_at_departure/total_num_trips,
         mean_monthly_pct_cancelled = num_of_canceled_trains/total_num_trips)  
```

``` r
df %>%
  group_by(arrival_station,departure_station) %>%
      summarize(Count = n()) 
```

    ## `summarise()` has grouped output by 'arrival_station'. You can override using the `.groups` argument.

    ## # A tibble: 130 x 3
    ## # Groups:   arrival_station [59]
    ##    arrival_station            departure_station  Count
    ##    <chr>                      <chr>              <int>
    ##  1 AIX EN PROVENCE TGV        PARIS LYON            47
    ##  2 ANGERS SAINT LAUD          PARIS MONTPARNASSE    47
    ##  3 ANGOULEME                  PARIS MONTPARNASSE    47
    ##  4 ANNECY                     PARIS LYON            47
    ##  5 ARRAS                      PARIS NORD            47
    ##  6 AVIGNON TGV                PARIS LYON            47
    ##  7 BARCELONA                  PARIS LYON            11
    ##  8 BELLEGARDE (AIN)           PARIS LYON            47
    ##  9 BESANCON FRANCHE COMTE TGV PARIS LYON            47
    ## 10 BORDEAUX ST JEAN           PARIS MONTPARNASSE    47
    ## # ... with 120 more rows
…
